/* XPM */
static char * x_xpm[] = {
/* width height ncolors chars_per_pixel */
"64 38 5 1",
/* colors */
" 	s None	c None",
".	c gainsboro",
"X	c white",
"o	c grey",
"O	c red",
/* pixels */
"                                                                ",
"                                                                ",
"                                                                ",
"                                                                ",
"                                                                ",
"                     .........  .              .....            ",
"                   .........XX....           .....o             ",
"                 .........XX.......        .....oo              ",
"               .........XX..........     .....ooo               ",
"             .........XX.............  .....oooo                ",
"           .........XX....................ooooo                 ",
"          OOOOOOOOOO................OOO.oooooo                  ",
"           OOOOOOOOOO..............OOOooooooo                   ",
"            OOOOOOOOOO............OOOooooooo                    ",
"             OOOOOOOOOO..........OOOooooooo                     ",
"              OOOOOOOOOO........OOOooooooo                      ",
"               OOOOOOOOOO......OOOoooooo...                     ",
"                OOOOOOOOOO....OOOoooooo.....                    ",
"                 OOOOOOOOOO..OOOooooo........                   ",
"                  OOOOOOOOO.OOOoooo...........                  ",
"                   OOOOOOOoOOOooo..............                 ",
"                    OOOOOoOOOOoo................                ",
"                     OOOoOOOOOO..................               ",
"                    OOOoOOOOOOOO..................              ",
"                   OOOoOOOOOOOOOO..................             ",
"                  OOOoooOOOOOOOOOO..................            ",
"                 OOOoooooOOOOOOOOOO..................           ",
"                OOOoooooooOOOOOOOOOO.................           ",
"               OOOooooooo  OOOOOOOOOO..............             ",
"              OOOoooooo     OOOOOOOOOO...........               ",
"             OOOooooo        OOOOOOOOOO........                 ",
"            OOOoooo           OOOOOOOOOO.....                   ",
"           OOOooo              OOOOOOOOOO..                     ",
"          OOOoo                                                 ",
"                                                                ",
"                                                                ",
"                                                                ",
"                                                                "};
