%!PS-Adobe-2.0 EPSF-2.0
%%Title: /afs/cern.ch/project/hepix/working-groups/startup-scripts/doc/chep95slides/shell.ps
%%Creator: XV Version 3.10a  Rev: 12/29/94  -  by John Bradley
%%BoundingBox: 266 389 330 453
%%Pages: 1
%%DocumentFonts:
%%EndComments
%%EndProlog

%%Page: 1 1

% remember original state
/origstate save def

% build a temporary dictionary
20 dict begin

% define string to hold a scanline's worth of data
/pix 8 string def

% define space for color conversions
/grays 64 string def  % space for gray scale line
/npixls 0 def
/rgbindx 0 def

% lower left corner
266 389 translate

% size of image (on paper, in 1/72inch coords)
64.00800 64.00800 scale

% dimensions of data
64 64 1

% mapping matrix
[64 0 0 -64 0 64]

{currentfile pix readhexstring pop}
image
ffffffffffffffff
ffffffffffffffff
ffffffffffffffff
ffffffffffffffff
ffffffffffffffff
ffffffffffffffff
ffffffffffffffff
ffffffffffffffff
ffffffffffffffff
ffffffffffffffff
ffffffffffffffff
ffffffffffffffff
ffffffffffffffff
ffffc101ffffffff
ffff207e3fffffff
fffe0fae5fffffff
fffcdfd5cfffffff
ffe1c7bb47ffffff
ffebefbdf3ffffff
ffede73fcdffffff
ff0cee7ebeffffff
fe7e46777c7fffff
feee98c7a83fffff
fe76a99ff71fffff
fef9fabbbf8fffff
f9b7fd70df07fff8
f9c3ff63f421ffe0
f9ae0f87d9500006
fbc40fffffaffefc
fbd873815f57d569
e3d9b7f8ff0eab03
e7d9378edc155c23
e35b0f63e0aaa087
f29bbebcd540010f
f3ccfc1faa802a9f
f1e831cf8501561f
f9cf02e72082ba3f
faa66ef73105763f
f3fbeefef80aee3f
f3e9cefcfc05dc3f
f1dcfff3ff0bb83f
f8bf3fe77f97e17f
fcbb855fafc0c47f
fef7dab7fff808ff
feebbd6beffb15ff
fedf7efdf5fe09ff
fe0ffdfbfbf723ff
fe077efd7d7e47ff
ffeafdffbfbc8fff
fff7feff5f591fff
fff6fdfeeff83fff
fff03eff7fc4ffff
fff00dffaf93ffff
ffff87e7ff8fffff
ffffe701c01fffff
fffff00000ffffff
fffff0fe1fffffff
fffffbff3fffffff
ffffffffffffffff
ffffffffffffffff
ffffffffffffffff
ffffffffffffffff
ffffffffffffffff
ffffffffffffffff


showpage

% stop using temporary dictionary
end

% restore original state
origstate restore

%%Trailer
