#FIG 3.1
Landscape
Center
Inches
1200 2
6 450 150 4650 825
2 4 0 2 0 7 0 0 -1 0.000 0 0 8 0 0 5
	 4576 751 4576 151 451 151 451 751 4576 751
4 0 -1 0 0 2 20 0.0000000 4 195 3885 601 526 Global View of the XDM session\001
-6
2 3 0 1 0 4 0 0 20 0.000 0 0 -1 0 0 6
	 2400 1200 9600 1200 9900 1500 9600 1800 2400 1800 2400 1200
2 3 0 1 0 1 0 0 20 0.000 0 0 -1 0 0 6
	 2400 1800 1800 1800 1800 8700 2100 9000 2400 8700 2400 1800
2 1 0 1 0 1 0 0 20 0.000 0 0 -1 0 0 2
	 2400 2400 2700 2400
2 1 0 1 0 1 0 0 20 0.000 0 0 -1 0 0 2
	 2400 3600 2700 3600
2 1 0 1 0 1 0 0 20 0.000 0 0 -1 0 0 2
	 2400 4800 2700 4800
2 1 0 1 0 1 0 0 20 0.000 0 0 -1 0 0 2
	 2400 6000 2700 6000
2 1 0 1 0 1 0 0 20 0.000 0 0 -1 0 0 2
	 2400 7200 2700 7200
2 3 0 1 0 6 0 0 20 0.000 0 0 -1 0 0 5
	 2775 5700 2775 6300 7200 7800 7200 4500 2775 5700
2 1 0 1 0 1 0 0 20 0.000 0 0 -1 0 0 2
	 7200 4800 7500 4800
2 1 0 1 0 1 0 0 20 0.000 0 0 -1 0 0 2
	 7200 6000 7500 6000
2 1 0 1 0 1 0 0 20 0.000 0 0 -1 0 0 2
	 7200 7200 7500 7200
4 0 -1 0 0 2 20 0.0000000 4 195 1110 5025 975 Processes\001
4 0 -1 0 0 2 20 0.0000000 4 195 630 975 5400 Time\001
4 0 -1 0 0 0 20 0.0000000 4 195 945 2925 2475 Chooser\001
4 0 -1 0 0 0 20 0.0000000 4 255 4155 2925 3675 Login panel (allow failsafe with F1)\001
4 0 -1 0 0 0 20 0.0000000 4 255 1770 2925 4875 Xstartup (root)\001
4 0 -1 0 0 0 20 0.0000000 4 255 1500 2925 7275 Xreset (root)\001
4 0 -1 0 0 0 20 0.0000000 4 195 1005 2925 6075 Xsession\001
4 0 -1 0 0 0 20 0.0000000 4 255 1350 7650 4875 Preparation\001
4 0 -1 0 0 0 20 0.0000000 4 195 495 7650 6075 Run\001
4 0 -1 0 0 0 20 0.0000000 4 195 465 7650 7275 End\001
