%!PS-Adobe-2.0 EPSF-2.0
%%Title: xsession.fig
%%Creator: fig2dev Version 3.1 Patchlevel 1
%%CreationDate: Mon Oct  9 13:15:27 1995
%%For: taddei@hpplus03 (Arnaud Taddei)
%%Orientation: Portrait
%%BoundingBox: 0 0 872 515
%%Pages: 0
%%BeginSetup
%%IncludeFeature: *PageSize Letter
%%EndSetup
%%EndComments
/$F2psDict 200 dict def
$F2psDict begin
$F2psDict /mtrx matrix put
/col-1 {} def
/col0 {0.000 0.000 0.000 srgb} bind def
/col1 {0.000 0.000 1.000 srgb} bind def
/col2 {0.000 1.000 0.000 srgb} bind def
/col3 {0.000 1.000 1.000 srgb} bind def
/col4 {1.000 0.000 0.000 srgb} bind def
/col5 {1.000 0.000 1.000 srgb} bind def
/col6 {1.000 1.000 0.000 srgb} bind def
/col7 {1.000 1.000 1.000 srgb} bind def
/col8 {0.000 0.000 0.560 srgb} bind def
/col9 {0.000 0.000 0.690 srgb} bind def
/col10 {0.000 0.000 0.820 srgb} bind def
/col11 {0.530 0.810 1.000 srgb} bind def
/col12 {0.000 0.560 0.000 srgb} bind def
/col13 {0.000 0.690 0.000 srgb} bind def
/col14 {0.000 0.820 0.000 srgb} bind def
/col15 {0.000 0.560 0.560 srgb} bind def
/col16 {0.000 0.690 0.690 srgb} bind def
/col17 {0.000 0.820 0.820 srgb} bind def
/col18 {0.560 0.000 0.000 srgb} bind def
/col19 {0.690 0.000 0.000 srgb} bind def
/col20 {0.820 0.000 0.000 srgb} bind def
/col21 {0.560 0.000 0.560 srgb} bind def
/col22 {0.690 0.000 0.690 srgb} bind def
/col23 {0.820 0.000 0.820 srgb} bind def
/col24 {0.500 0.190 0.000 srgb} bind def
/col25 {0.630 0.250 0.000 srgb} bind def
/col26 {0.750 0.380 0.000 srgb} bind def
/col27 {1.000 0.500 0.500 srgb} bind def
/col28 {1.000 0.630 0.630 srgb} bind def
/col29 {1.000 0.750 0.750 srgb} bind def
/col30 {1.000 0.880 0.880 srgb} bind def
/col31 {1.000 0.840 0.000 srgb} bind def

end
save
-4.0 541.0 translate
1 -1 scale

/clp {closepath} bind def
/ef {eofill} bind def
/gr {grestore} bind def
/gs {gsave} bind def
/l {lineto} bind def
/m {moveto} bind def
/n {newpath} bind def
/s {stroke} bind def
/slc {setlinecap} bind def
/slj {setlinejoin} bind def
/slw {setlinewidth} bind def
/srgb {setrgbcolor} bind def
/rot {rotate} bind def
/sc {scale} bind def
/tr {translate} bind def
/tnt {dup dup currentrgbcolor
  4 -2 roll dup 1 exch sub 3 -1 roll mul add
  4 -2 roll dup 1 exch sub 3 -1 roll mul add
  4 -2 roll dup 1 exch sub 3 -1 roll mul add srgb}
  bind def
/shd {dup dup currentrgbcolor 4 -2 roll mul 4 -2 roll mul
  4 -2 roll mul srgb} bind def
/$F2psBegin {$F2psDict begin /$F2psEnteredState save def} def
/$F2psEnd {$F2psEnteredState restore end} def
%%EndProlog

$F2psBegin
10 setmiterlimit
 0.06000 0.06000 sc
7.500 slw
% Polyline
n 4800 5775 m 4800 6375 l  5100 6675 l  5400 6375 l  5400 5775 l  clp gs col1 1.00 shd ef gr  gs col-1 s gr 
% Polyline
n 4800 7125 m 4800 8700 l  5100 9000 l  5400 8700 l  5400 7125 l  clp gs col1 1.00 shd ef gr  gs col-1 s gr 
% Polyline
n 4800 975 m 4800 4800 l  5100 5100 l  5400 4800 l  5400 975 l  clp gs col1 1.00 shd ef gr  gs col-1 s gr 
% Polyline
n 4800 4200 m 1800 4800 l  1800 5400 l  2100 5700 l  2400 5400 l  2400 5250 l 
 4800 4725 l  clp gs col6 1.00 shd ef gr  gs col-1 s gr 
/Times-Bold findfont 300.00 scalefont setfont
4501 8176 m
gs 1 -1 sc (HX_WM) col-1 show gr
% Polyline
n 3706 7201 m 3601 7201 3601 7471 105 arcto 4 {pop} repeat 3601 7576 6571 7576 105 arcto 4 {pop} repeat 6676 7576 6676 7306 105 arcto 4 {pop} repeat 6676 7201 3706 7201 105 arcto 4 {pop} repeat clp  gs col-1 s gr 
/Times-Bold findfont 300.00 scalefont setfont
3676 7501 m
gs 1 -1 sc (HX_ROOT_WINDOW) col-1 show gr
% Polyline
n 3856 8550 m 3751 8550 3751 8820 105 arcto 4 {pop} repeat 3751 8925 6346 8925 105 arcto 4 {pop} repeat 6451 8925 6451 8655 105 arcto 4 {pop} repeat 6451 8550 3856 8550 105 arcto 4 {pop} repeat clp  gs col-1 s gr 
/Times-Bold findfont 300.00 scalefont setfont
3826 8850 m
gs 1 -1 sc (HX_LAST_CLIENT) col-1 show gr
% Polyline
n 4067 4277 m 3977 4277 3977 4562 90 arcto 4 {pop} repeat 3977 4652 6061 4652 90 arcto 4 {pop} repeat 6151 4652 6151 4367 90 arcto 4 {pop} repeat 6151 4277 4067 4277 90 arcto 4 {pop} repeat clp  gs col-1 s gr 
/Times-Bold findfont 300.00 scalefont setfont
4052 4577 m
gs 1 -1 sc (HX_DESKTOP) col-1 show gr
% Polyline
n 1875 3375 m 1575 3750 l gs col2 1.00 shd ef gr  gs col-1 s gr 
n 1673.39 3675.04 m 1575.00 3750.00 l 1626.54 3637.55 l  1650.46 3656.80 l 1673.39 3675.04 l clp gs 0.00 setgray ef gr gs col-1 s gr
% Polyline
n 2325 3375 m 2625 3750 l gs col2 1.00 shd ef gr  gs col-1 s gr 
n 2573.46 3637.55 m 2625.00 3750.00 l 2526.61 3675.04 l  2550.54 3656.80 l 2573.46 3637.55 l clp gs 0.00 setgray ef gr gs col-1 s gr
% Polyline
n 1800 5625 m 1200 6000 l gs col2 1.00 shd ef gr  gs col-1 s gr 
n 1317.66 5961.84 m 1200.00 6000.00 l 1285.86 5910.96 l  1302.26 5936.90 l 1317.66 5961.84 l clp gs 0.00 setgray ef gr gs col-1 s gr
% Polyline
n 2400 5625 m 3000 6000 l gs col2 1.00 shd ef gr  gs col-1 s gr 
n 2914.14 5910.96 m 3000.00 6000.00 l 2882.34 5961.84 l  2898.74 5936.90 l 2914.14 5910.96 l clp gs 0.00 setgray ef gr gs col-1 s gr
% Polyline
n 2100 5775 m 2100 6000 l gs col2 1.00 shd ef gr  gs col-1 s gr 
n 2130.00 5880.00 m 2100.00 6000.00 l 2070.00 5880.00 l  2100.50 5880.50 l 2130.00 5880.00 l clp gs 0.00 setgray ef gr gs col-1 s gr
% Polyline
n 4800 1950 m 1800 2550 l  1800 3150 l  2100 3450 l  2400 3150 l  2400 3000 l 
 4800 2475 l  clp gs col4 1.00 shd ef gr  gs col-1 s gr 
% Polyline
n 8505 3301 m 8400 3301 8400 5595 105 arcto 4 {pop} repeat 8400 5700 10770 5700 105 arcto 4 {pop} repeat 10875 5700 10875 3406 105 arcto 4 {pop} repeat 10875 3301 8505 3301 105 arcto 4 {pop} repeat clp  gs col-1 s gr 
% Polyline
n 4531 7876 m 4426 7876 4426 8146 105 arcto 4 {pop} repeat 4426 8251 5596 8251 105 arcto 4 {pop} repeat 5701 8251 5701 7981 105 arcto 4 {pop} repeat 5701 7876 4531 7876 105 arcto 4 {pop} repeat clp  gs col-1 s gr 
/Times-Bold findfont 300.00 scalefont setfont
4126 6076 m
gs 1 -1 sc (HX_STARTUP) col-1 show gr
% Polyline
n 4156 5776 m 4051 5776 4051 6046 105 arcto 4 {pop} repeat 4051 6151 5971 6151 105 arcto 4 {pop} repeat 6076 6151 6076 5881 105 arcto 4 {pop} repeat 6076 5776 4156 5776 105 arcto 4 {pop} repeat clp  gs col-1 s gr 
/Times-Bold findfont 240.00 scalefont setfont
1651 751 m
gs 1 -1 sc (HEP_Xsession Model) col-1 show gr
% Polyline
n 5552 6287 m 8102 6737 l gs col2 1.00 shd ef gr  gs col-1 s gr 
n 7989.04 6686.60 m 8102.00 6737.00 l 7978.61 6745.69 l  7984.33 6716.65 l 7989.04 6686.60 l clp gs 0.00 setgray ef gr gs col-1 s gr
% Polyline
n 4650 6300 m 2100 6750 l gs col2 1.00 shd ef gr  gs col-1 s gr 
n 2223.39 6758.69 m 2100.00 6750.00 l 2212.96 6699.60 l  2218.67 6729.65 l 2223.39 6758.69 l clp gs 0.00 setgray ef gr gs col-1 s gr
/Times-Roman findfont 210.00 scalefont setfont
7950 3225 m
gs 1 -1 sc (Provide the Major switchs values: ) col-1 show gr
% Polyline
n 1531 451 m 1426 451 1426 796 105 arcto 4 {pop} repeat 1426 901 4021 901 105 arcto 4 {pop} repeat 4126 901 4126 556 105 arcto 4 {pop} repeat 4126 451 1531 451 105 arcto 4 {pop} repeat clp  gs col-1 s gr 
/Times-Roman findfont 300.00 scalefont setfont
900 4050 m
gs 1 -1 sc (Failsafe) col-1 show gr
/Times-Roman findfont 300.00 scalefont setfont
5475 3975 m
gs 1 -1 sc (Use Unformation) col-1 show gr
/Times-Roman findfont 300.00 scalefont setfont
2250 4050 m
gs 1 -1 sc (Xforward) col-1 show gr
/Times-Roman findfont 300.00 scalefont setfont
75 6300 m
gs 1 -1 sc (COSE/CDE) col-1 show gr
/Times-Roman findfont 300.00 scalefont setfont
1650 6300 m
gs 1 -1 sc (HP-VUE) col-1 show gr
/Times-Roman findfont 300.00 scalefont setfont
2925 6300 m
gs 1 -1 sc (etc.) col-1 show gr
/Times-Roman findfont 300.00 scalefont setfont
4050 6975 m
gs 1 -1 sc (HEP_xsession.default) col-1 show gr
/Times-Roman findfont 300.00 scalefont setfont
7950 6975 m
gs 1 -1 sc (etc.) col-1 show gr
/Times-Roman findfont 300.00 scalefont setfont
1425 6975 m
gs 1 -1 sc ($HOME/.xsession) col-1 show gr
/Times-Roman findfont 300.00 scalefont setfont
5475 1500 m
gs 1 -1 sc (Prelimnary tasks) col-1 show gr
/Times-Roman findfont 300.00 scalefont setfont
5475 1950 m
gs 1 -1 sc (Process options) col-1 show gr
/Times-Roman findfont 300.00 scalefont setfont
5475 2625 m
gs 1 -1 sc (Get Information) col-1 show gr
/Times-Roman findfont 300.00 scalefont setfont
5475 3225 m
gs 1 -1 sc (Process Information) col-1 show gr
/Times-Roman findfont 210.00 scalefont setfont
7950 2625 m
gs 1 -1 sc (From Xinfo, from the files xprofile, from the system level HEPiX shell scripts) col-1 show gr
/Times-Roman findfont 210.00 scalefont setfont
7950 1950 m
gs 1 -1 sc (Xforward, Xfailsafe) col-1 show gr
/Times-Roman findfont 210.00 scalefont setfont
7950 1500 m
gs 1 -1 sc (check /etc/nologin, run xhost -, create $HOME/.hepix/xsession.log) col-1 show gr
/Times-Roman findfont 210.00 scalefont setfont
8478 3528 m
gs 1 -1 sc (HX_SOURCEPROFILE) col-1 show gr
/Times-Roman findfont 210.00 scalefont setfont
8478 3852 m
gs 1 -1 sc (HX_WM) col-1 show gr
/Times-Roman findfont 210.00 scalefont setfont
8478 4500 m
gs 1 -1 sc (HX_LAST_CLIENT) col-1 show gr
/Times-Roman findfont 210.00 scalefont setfont
8478 4824 m
gs 1 -1 sc (HX_STARTUP) col-1 show gr
/Times-Roman findfont 210.00 scalefont setfont
8478 5148 m
gs 1 -1 sc (HX_KEYBOARD) col-1 show gr
/Times-Roman findfont 240.00 scalefont setfont
8475 5475 m
gs 1 -1 sc (HX_ROOT_WINDOW) col-1 show gr
/Times-Roman findfont 300.00 scalefont setfont
4725 5400 m
gs 1 -1 sc (HEPIX) col-1 show gr
/Times-Roman findfont 210.00 scalefont setfont
8478 4176 m
gs 1 -1 sc (HX_DESKTOP) col-1 show gr
/Times-Roman findfont 300.00 scalefont setfont
6300 6300 m
gs 1 -1 sc (Starts mandatory clients) col-1 show gr
/Times-Roman findfont 300.00 scalefont setfont
6225 8175 m
gs 1 -1 sc (Starts normal clients, set keymapping, etc.) col-1 show gr
$F2psEnd
restore
