%!PS-Adobe-2.0 EPSF-2.0
%%Creator: gnuplot
%%DocumentFonts: Times-Roman
%%BoundingBox: 50 50 590 428
%%EndComments
/gnudict 40 dict def
gnudict begin
/Color false def
/Solid false def
/gnulinewidth 5.000 def
/vshift -100 def
/dl {10 mul} def
/hpt 31.5 def
/vpt 31.5 def
/M {moveto} bind def
/L {lineto} bind def
/R {rmoveto} bind def
/V {rlineto} bind def
/vpt2 vpt 2 mul def
/hpt2 hpt 2 mul def
/Lshow { currentpoint stroke M
  0 vshift R show } def
/Rshow { currentpoint stroke M
  dup stringwidth pop neg vshift R show } def
/Cshow { currentpoint stroke M
  dup stringwidth pop -2 div vshift R show } def
/DL { Color {setrgbcolor Solid {pop []} if 0 setdash }
 {pop pop pop Solid {pop []} if 0 setdash} ifelse } def
/BL { stroke gnulinewidth 2 mul setlinewidth } def
/AL { stroke gnulinewidth 2 div setlinewidth } def
/PL { stroke gnulinewidth setlinewidth } def
/LTb { BL [] 0 0 0 DL } def
/LTa { AL [1 dl 2 dl] 0 setdash 0 0 0 setrgbcolor } def
/LT0 { PL [] 0 1 0 DL } def
/LT1 { PL [4 dl 2 dl] 0 0 1 DL } def
/LT2 { PL [2 dl 3 dl] 1 0 0 DL } def
/LT3 { PL [1 dl 1.5 dl] 1 0 1 DL } def
/LT4 { PL [5 dl 2 dl 1 dl 2 dl] 0 1 1 DL } def
/LT5 { PL [4 dl 3 dl 1 dl 3 dl] 1 1 0 DL } def
/LT6 { PL [2 dl 2 dl 2 dl 4 dl] 0 0 0 DL } def
/LT7 { PL [2 dl 2 dl 2 dl 2 dl 2 dl 4 dl] 1 0.3 0 DL } def
/LT8 { PL [2 dl 2 dl 2 dl 2 dl 2 dl 2 dl 2 dl 4 dl] 0.5 0.5 0.5 DL } def
/P { stroke [] 0 setdash
  currentlinewidth 2 div sub M
  0 currentlinewidth V stroke } def
/D { stroke [] 0 setdash 2 copy vpt add M
  hpt neg vpt neg V hpt vpt neg V
  hpt vpt V hpt neg vpt V closepath stroke
  P } def
/A { stroke [] 0 setdash vpt sub M 0 vpt2 V
  currentpoint stroke M
  hpt neg vpt neg R hpt2 0 V stroke
  } def
/B { stroke [] 0 setdash 2 copy exch hpt sub exch vpt add M
  0 vpt2 neg V hpt2 0 V 0 vpt2 V
  hpt2 neg 0 V closepath stroke
  P } def
/C { stroke [] 0 setdash exch hpt sub exch vpt add M
  hpt2 vpt2 neg V currentpoint stroke M
  hpt2 neg 0 R hpt2 vpt2 V stroke } def
/T { stroke [] 0 setdash 2 copy vpt 1.12 mul add M
  hpt neg vpt -1.62 mul V
  hpt 2 mul 0 V
  hpt neg vpt 1.62 mul V closepath stroke
  P  } def
/S { 2 copy A C} def
end
%%EndProlog
gnudict begin
gsave
50 50 translate
0.050 0.050 scale
0 setgray
/Times-Roman findfont 300 scalefont setfont
newpath
LTa
1440 451 M
8937 0 V
-8937 0 R
0 6958 V
LTb
LTa
1440 2497 M
8937 0 V
LTb
1440 2497 M
63 0 V
8874 0 R
-63 0 V
-9054 0 R
(HEP_zshrc) Rshow
LTa
1440 7409 M
8937 0 V
LTb
1440 7409 M
63 0 V
8874 0 R
-63 0 V
-9054 0 R
(/etc/zshenv) Rshow
LTa
1440 2907 M
8937 0 V
LTb
1440 2907 M
63 0 V
8874 0 R
-63 0 V
-9054 0 R
(/etc/zshrc) Rshow
LTa
1440 6181 M
8937 0 V
LTb
1440 6181 M
63 0 V
8874 0 R
-63 0 V
-9054 0 R
(env.sh) Rshow
LTa
1440 3316 M
8937 0 V
LTb
1440 3316 M
63 0 V
8874 0 R
-63 0 V
-9054 0 R
(central_login.sh) Rshow
LTa
1440 4544 M
8937 0 V
LTb
1440 4544 M
63 0 V
8874 0 R
-63 0 V
-9054 0 R
(HEP_zprofile) Rshow
LTa
1440 5363 M
8937 0 V
LTb
1440 5363 M
63 0 V
8874 0 R
-63 0 V
-9054 0 R
(central_env.sh) Rshow
LTa
1440 860 M
8937 0 V
LTb
1440 860 M
63 0 V
8874 0 R
-63 0 V
-9054 0 R
(.zlogin) Rshow
LTa
1440 4135 M
8937 0 V
LTb
1440 4135 M
63 0 V
8874 0 R
-63 0 V
-9054 0 R
(login.sh) Rshow
LTa
1440 6590 M
8937 0 V
LTb
1440 6590 M
63 0 V
8874 0 R
-63 0 V
-9054 0 R
(sys.conf.sh) Rshow
LTa
1440 7000 M
8937 0 V
LTb
1440 7000 M
63 0 V
8874 0 R
-63 0 V
-9054 0 R
(HEP_zshenv) Rshow
LTa
1440 4953 M
8937 0 V
LTb
1440 4953 M
63 0 V
8874 0 R
-63 0 V
-9054 0 R
(/etc/zprofile) Rshow
LTa
1440 5772 M
8937 0 V
LTb
1440 5772 M
63 0 V
8874 0 R
-63 0 V
-9054 0 R
(.zshenv) Rshow
LTa
1440 1270 M
8937 0 V
LTb
1440 1270 M
63 0 V
8874 0 R
-63 0 V
-9054 0 R
(.zshrc) Rshow
LTa
1440 2088 M
8937 0 V
LTb
1440 2088 M
63 0 V
8874 0 R
-63 0 V
-9054 0 R
(aliases.sh) Rshow
LTa
1440 1679 M
8937 0 V
LTb
1440 1679 M
63 0 V
8874 0 R
-63 0 V
-9054 0 R
(zshrc) Rshow
LTa
1440 3725 M
8937 0 V
LTb
1440 3725 M
63 0 V
8874 0 R
-63 0 V
-9054 0 R
(.zprofile) Rshow
LTa
1440 451 M
0 6958 V
LTb
1440 451 M
0 63 V
0 6895 R
0 -63 V
0 -7195 R
(0) Cshow
LTa
2648 451 M
0 6958 V
LTb
2648 451 M
0 63 V
0 6895 R
0 -63 V
0 -7195 R
(5) Cshow
LTa
3855 451 M
0 6958 V
LTb
3855 451 M
0 63 V
0 6895 R
0 -63 V
0 -7195 R
(10) Cshow
LTa
5063 451 M
0 6958 V
LTb
5063 451 M
0 63 V
0 6895 R
0 -63 V
0 -7195 R
(15) Cshow
LTa
6271 451 M
0 6958 V
LTb
6271 451 M
0 63 V
0 6895 R
0 -63 V
0 -7195 R
(20) Cshow
LTa
7479 451 M
0 6958 V
LTb
7479 451 M
0 63 V
0 6895 R
0 -63 V
0 -7195 R
(25) Cshow
LTa
8686 451 M
0 6958 V
LTb
8686 451 M
0 63 V
0 6895 R
0 -63 V
0 -7195 R
(30) Cshow
LTa
9894 451 M
0 6958 V
LTb
9894 451 M
0 63 V
0 6895 R
0 -63 V
0 -7195 R
(35) Cshow
1440 451 M
8937 0 V
0 6958 V
-8937 0 V
0 -6958 V
LT0
9414 7046 M
("analyse.dat") Rshow
9594 7046 M
540 0 V
1440 7409 M
242 -409 V
241 -410 V
242 0 V
241 -409 V
242 0 V
241 819 V
242 409 V
3372 5772 L
242 -409 V
241 0 V
242 409 V
241 -819 V
242 -409 V
242 -409 V
241 0 V
242 409 V
241 409 V
5788 3725 L
241 -409 V
242 0 V
241 409 V
242 -818 V
241 -410 V
242 -409 V
242 0 V
241 -409 V
242 0 V
241 818 V
242 410 V
8686 1270 L
242 4093 V
241 0 V
9411 1270 L
9652 860 L
242 2456 V
241 0 V
10377 860 L
9774 7046 D
1440 7409 D
1682 7000 D
1923 6590 D
2165 6590 D
2406 6181 D
2648 6181 D
2889 7000 D
3131 7409 D
3372 5772 D
3614 5363 D
3855 5363 D
4097 5772 D
4338 4953 D
4580 4544 D
4822 4135 D
5063 4135 D
5305 4544 D
5546 4953 D
5788 3725 D
6029 3316 D
6271 3316 D
6512 3725 D
6754 2907 D
6995 2497 D
7237 2088 D
7479 2088 D
7720 1679 D
7962 1679 D
8203 2497 D
8445 2907 D
8686 1270 D
8928 5363 D
9169 5363 D
9411 1270 D
9652 860 D
9894 3316 D
10135 3316 D
10377 860 D
stroke
grestore
end
showpage
%%Trailer
